{
    "uuid": "ShutdownApplet@DeathMD",
    "name": "Shutdown Applet",
    "description": "An applet to shutdown, restart and suspend your system.",
    "author": "icarter09",
    "last-edited": 1640532160
}